…
## xxx  Births per month in New York City

from January 1946 to December 1959:

\small

```r
ny=read_table("nybirths.txt",col_names=F)
ny
```

```
## # A tibble: 168 x 1
##       X1
##    <dbl>
##  1  26.7
##  2  23.6
##  3  26.9
##  4  24.7
##  5  25.8
##  6  24.4
##  7  24.5
##  8  23.9
##  9  23.2
## 10  23.2
## # … with 158 more rows
```
…
## The series xxx


```r
ma
```

```
## # A tibble: 100 x 3
##         e   e_lag      y
##     <dbl>   <dbl>  <dbl>
##  1  0.991  NA      0    
##  2  0.469   0.991  1.46 
##  3  0.535   0.469  1.00 
##  4 -0.244   0.535  0.291
##  5  1.17   -0.244  0.928
##  6 -0.473   1.17   0.699
##  7  1.56   -0.473  1.08 
##  8 -0.355   1.56   1.20 
##  9 -0.400  -0.355 -0.755
## 10 -2.10   -0.400 -2.50 
## # … with 90 more rows
```
…
## Stage 1

hopefully looking familiar by now:

```r
my_url <- "http://www.utsc.utoronto.ca/~butler/d29/cancer.txt"
cancer <- read_delim(my_url, " ")
cancer %>% print(n = 6)
```

```
## # A tibble: 16 x 5
##   stage operation xray  survival  freq
##   <chr> <chr>     <chr> <chr>    <dbl>
## 1 early radical   no    no          10
## 2 early radical   no    yes         41
## 3 early radical   yes   no          17
## 4 early radical   yes   yes         64
## 5 early limited   no    no           1
## 6 early limited   no    yes         13
## # … with 10 more rows
```
…
